GForcingVector = 
    {(e^5*Pi*Sqrt[(6*e*(-1 + e^2) - 2*Sqrt[1 - e^2]*(-3 + 2*e^2)*ArcSin[e])/
         e^3]*k0[1]*phiO[1])/(15*(1 - e^2)^(1/6)*
       (Sqrt[-1 + e^(-2)]*e^2*(3 + 10*e^2) + (-3 - 8*e^2 + 8*e^4)*
         ArcCot[Sqrt[-1 + e^(-2)]])), 
     (e^5*Pi*Sqrt[(6*e*(-1 + e^2) - 2*Sqrt[1 - e^2]*(-3 + 2*e^2)*ArcSin[e])/
         e^3]*k0[2]*phiO[2])/(15*(1 - e^2)^(1/6)*
       (Sqrt[-1 + e^(-2)]*e^2*(3 + 10*e^2) + (-3 - 8*e^2 + 8*e^4)*
         ArcCot[Sqrt[-1 + e^(-2)]])), (Sqrt[-1 + e^(-2)]*e^3*Pi*
       Sqrt[(3*e*(-1 + e^2) - Sqrt[1 - e^2]*(-3 + 2*e^2)*ArcSin[e])/e^3]*
       k0[3]*phiO[3])/(3*Sqrt[2]*(1 - e^2)^(1/6)*
       (5*(-1 + e^2)*(-1 + Sqrt[-1 + e^(-2)]*ArcCot[Sqrt[-1 + e^(-2)]]) - 
        e^2*Hypergeometric2F1[1, 3/2, 7/2, e^2/(-1 + e^2)])), 
     (Sqrt[-1 + e^(-2)]*e^3*Pi*Sqrt[(3*e*(-1 + e^2) - Sqrt[1 - e^2]*
           (-3 + 2*e^2)*ArcSin[e])/e^3]*k0[4]*phiO[4])/
      (3*Sqrt[2]*(1 - e^2)^(1/6)*
       (5*(-1 + e^2)*(-1 + Sqrt[-1 + e^(-2)]*ArcCot[Sqrt[-1 + e^(-2)]]) - 
        e^2*Hypergeometric2F1[1, 3/2, 7/2, e^2/(-1 + e^2)])), 
     (-3*Sqrt[2]*Sqrt[-1 + e^(-2)]*e^3*(1 - e^2)^(5/6)*Pi*
       Sqrt[(3*e*(-1 + e^2) - Sqrt[1 - e^2]*(-3 + 2*e^2)*ArcSin[e])/e^3]*
       k0[5]*phiO[5])/(15*(-1 + e^2)^2*(-1 + Sqrt[-1 + e^(-2)]*
          ArcCot[Sqrt[-1 + e^(-2)]]) + (3*e^2 - 2*e^4)*Hypergeometric2F1[3/2, 
         2, 7/2, e^2/(-1 + e^2)]), (-3*Sqrt[2]*Sqrt[-1 + e^(-2)]*e^3*
       (1 - e^2)^(5/6)*Pi*Sqrt[(3*e*(-1 + e^2) - Sqrt[1 - e^2]*(-3 + 2*e^2)*
           ArcSin[e])/e^3]*k0[6]*phiO[6])/
      (15*(-1 + e^2)^2*(-1 + Sqrt[-1 + e^(-2)]*ArcCot[Sqrt[-1 + e^(-2)]]) + 
       (3*e^2 - 2*e^4)*Hypergeometric2F1[3/2, 2, 7/2, e^2/(-1 + e^2)]), 
     (-3*Sqrt[2]*Sqrt[-1 + e^(-2)]*e^3*(1 - e^2)^(5/6)*Pi*
       Sqrt[(3*e*(-1 + e^2) - Sqrt[1 - e^2]*(-3 + 2*e^2)*ArcSin[e])/e^3]*
       k0[7]*phiO[7])/(15*(-1 + e^2)^2*(-1 + Sqrt[-1 + e^(-2)]*
          ArcCot[Sqrt[-1 + e^(-2)]]) + (3*e^2 - 2*e^4)*Hypergeometric2F1[3/2, 
         2, 7/2, e^2/(-1 + e^2)]), (-6*Sqrt[2]*Sqrt[-1 + e^(-2)]*e^3*
       (1 - e^2)^(5/6)*Pi*Sqrt[(3*e*(-1 + e^2) - Sqrt[1 - e^2]*(-3 + 2*e^2)*
           ArcSin[e])/e^3]*k0[8]*phiO[8])/
      (5*(-1 + e^2)^2*(-1 + Sqrt[-1 + e^(-2)]*ArcCot[Sqrt[-1 + e^(-2)]]) + 
       e^2*Hypergeometric2F1[2, 5/2, 7/2, e^2/(-1 + e^2)]), 
     (-6*Sqrt[2]*Sqrt[-1 + e^(-2)]*e^3*(1 - e^2)^(5/6)*Pi*
       Sqrt[(3*e*(-1 + e^2) - Sqrt[1 - e^2]*(-3 + 2*e^2)*ArcSin[e])/e^3]*
       k0[9]*phiO[9])/(5*(-1 + e^2)^2*(-1 + Sqrt[-1 + e^(-2)]*
          ArcCot[Sqrt[-1 + e^(-2)]]) + e^2*Hypergeometric2F1[2, 5/2, 7/2, 
         e^2/(-1 + e^2)]), 
     (192*e^5*Pi*Sqrt[(6*e*(-1 + e^2) - 2*Sqrt[1 - e^2]*(-3 + 2*e^2)*
           ArcSin[e])/e^3]*k0[10]*phiO[10])/(5*(1 - e^2)^(1/6)*
       (Sqrt[-1 + e^(-2)]*e^2*(3 + 10*e^2) + (-3 - 8*e^2 + 8*e^4)*
         ArcCot[Sqrt[-1 + e^(-2)]])), 
     (192*e^5*Pi*Sqrt[(6*e*(-1 + e^2) - 2*Sqrt[1 - e^2]*(-3 + 2*e^2)*
           ArcSin[e])/e^3]*k0[11]*phiO[11])/(5*(1 - e^2)^(1/6)*
       (Sqrt[-1 + e^(-2)]*e^2*(3 + 10*e^2) + (-3 - 8*e^2 + 8*e^4)*
         ArcCot[Sqrt[-1 + e^(-2)]])), 
     (e^7*Pi*Sqrt[(6*e*(-1 + e^2) - 2*Sqrt[1 - e^2]*(-3 + 2*e^2)*ArcSin[e])/
         e^3]*k0[12]*phiO[12])/(105*(1 - e^2)^(1/6)*
       (Sqrt[-1 + e^(-2)]*e^2*(15 + 10*e^2 + 56*e^4) + 
        3*(-5 - 16*e^4 + 16*e^6)*ArcCot[Sqrt[-1 + e^(-2)]])), 
     (e^7*Pi*Sqrt[(6*e*(-1 + e^2) - 2*Sqrt[1 - e^2]*(-3 + 2*e^2)*ArcSin[e])/
         e^3]*k0[13]*phiO[13])/(105*(1 - e^2)^(1/6)*
       (Sqrt[-1 + e^(-2)]*e^2*(15 + 10*e^2 + 56*e^4) + 
        3*(-5 - 16*e^4 + 16*e^6)*ArcCot[Sqrt[-1 + e^(-2)]])), 
     (Sqrt[-1 + e^(-2)]*e^3*Pi*Sqrt[(3*e*(-1 + e^2) - Sqrt[1 - e^2]*
           (-3 + 2*e^2)*ArcSin[e])/e^3]*k0[14]*phiO[14])/
      (60*Sqrt[2]*(1 - e^2)^(1/6)*
       (7*(-1 + e^2)*(-1 + Sqrt[-1 + e^(-2)]*ArcCot[Sqrt[-1 + e^(-2)]]) - 
        e^2*Hypergeometric2F1[1, 3/2, 9/2, e^2/(-1 + e^2)])), 
     (Sqrt[-1 + e^(-2)]*e^3*Pi*Sqrt[(3*e*(-1 + e^2) - Sqrt[1 - e^2]*
           (-3 + 2*e^2)*ArcSin[e])/e^3]*k0[15]*phiO[15])/
      (60*Sqrt[2]*(1 - e^2)^(1/6)*
       (7*(-1 + e^2)*(-1 + Sqrt[-1 + e^(-2)]*ArcCot[Sqrt[-1 + e^(-2)]]) - 
        e^2*Hypergeometric2F1[1, 3/2, 9/2, e^2/(-1 + e^2)])), 
     (Sqrt[-1 + e^(-2)]*e^3*Pi*Sqrt[(3*e*(-1 + e^2) - Sqrt[1 - e^2]*
           (-3 + 2*e^2)*ArcSin[e])/e^3]*k0[16]*phiO[16])/
      (60*Sqrt[2]*(1 - e^2)^(1/6)*
       (7*(-1 + e^2)*(-1 + Sqrt[-1 + e^(-2)]*ArcCot[Sqrt[-1 + e^(-2)]]) - 
        e^2*Hypergeometric2F1[1, 3/2, 9/2, e^2/(-1 + e^2)])), 
     (-5*Sqrt[-1 + e^(-2)]*e^3*(1 - e^2)^(5/6)*Pi*
       Sqrt[(3*e*(-1 + e^2) - Sqrt[1 - e^2]*(-3 + 2*e^2)*ArcSin[e])/e^3]*
       k0[17]*phiO[17])/(6*Sqrt[2]*(35*(-1 + e^2)^2*
         (-1 + Sqrt[-1 + e^(-2)]*ArcCot[Sqrt[-1 + e^(-2)]]) + 
        (5*e^2 - 4*e^4)*Hypergeometric2F1[3/2, 2, 9/2, e^2/(-1 + e^2)])), 
     (-5*Sqrt[-1 + e^(-2)]*e^3*(1 - e^2)^(5/6)*Pi*
       Sqrt[(3*e*(-1 + e^2) - Sqrt[1 - e^2]*(-3 + 2*e^2)*ArcSin[e])/e^3]*
       k0[18]*phiO[18])/(6*Sqrt[2]*(35*(-1 + e^2)^2*
         (-1 + Sqrt[-1 + e^(-2)]*ArcCot[Sqrt[-1 + e^(-2)]]) + 
        (5*e^2 - 4*e^4)*Hypergeometric2F1[3/2, 2, 9/2, e^2/(-1 + e^2)])), 
     (-5*Sqrt[-1 + e^(-2)]*e^3*(1 - e^2)^(5/6)*Pi*
       Sqrt[(3*e*(-1 + e^2) - Sqrt[1 - e^2]*(-3 + 2*e^2)*ArcSin[e])/e^3]*
       k0[19]*phiO[19])/(6*Sqrt[2]*(35*(-1 + e^2)^2*
         (-1 + Sqrt[-1 + e^(-2)]*ArcCot[Sqrt[-1 + e^(-2)]]) + 
        (5*e^2 - 4*e^4)*Hypergeometric2F1[3/2, 2, 9/2, e^2/(-1 + e^2)])), 
     (-5*Sqrt[-1 + e^(-2)]*e^3*(1 - e^2)^(5/6)*Pi*
       Sqrt[(3*e*(-1 + e^2) - Sqrt[1 - e^2]*(-3 + 2*e^2)*ArcSin[e])/e^3]*
       k0[20]*phiO[20])/(6*Sqrt[2]*(35*(-1 + e^2)^2*
         (-1 + Sqrt[-1 + e^(-2)]*ArcCot[Sqrt[-1 + e^(-2)]]) + 
        (5*e^2 - 4*e^4)*Hypergeometric2F1[3/2, 2, 9/2, e^2/(-1 + e^2)])), 
     (-5*Sqrt[2]*Sqrt[-1 + e^(-2)]*e^3*(1 - e^2)^(5/6)*Pi*
       Sqrt[(3*e*(-1 + e^2) - Sqrt[1 - e^2]*(-3 + 2*e^2)*ArcSin[e])/e^3]*
       k0[21]*phiO[21])/(35*(-1 + e^2)^2*(-1 + Sqrt[-1 + e^(-2)]*
          ArcCot[Sqrt[-1 + e^(-2)]]) + (5*e^2 - 2*e^4)*Hypergeometric2F1[2, 
         5/2, 9/2, e^2/(-1 + e^2)]), (-5*Sqrt[2]*Sqrt[-1 + e^(-2)]*e^3*
       (1 - e^2)^(5/6)*Pi*Sqrt[(3*e*(-1 + e^2) - Sqrt[1 - e^2]*(-3 + 2*e^2)*
           ArcSin[e])/e^3]*k0[22]*phiO[22])/
      (35*(-1 + e^2)^2*(-1 + Sqrt[-1 + e^(-2)]*ArcCot[Sqrt[-1 + e^(-2)]]) + 
       (5*e^2 - 2*e^4)*Hypergeometric2F1[2, 5/2, 9/2, e^2/(-1 + e^2)]), 
     (-5*Sqrt[2]*Sqrt[-1 + e^(-2)]*e^3*(1 - e^2)^(5/6)*Pi*
       Sqrt[(3*e*(-1 + e^2) - Sqrt[1 - e^2]*(-3 + 2*e^2)*ArcSin[e])/e^3]*
       k0[23]*phiO[23])/(35*(-1 + e^2)^2*(-1 + Sqrt[-1 + e^(-2)]*
          ArcCot[Sqrt[-1 + e^(-2)]]) + (5*e^2 - 2*e^4)*Hypergeometric2F1[2, 
         5/2, 9/2, e^2/(-1 + e^2)]), (-5*Sqrt[2]*Sqrt[-1 + e^(-2)]*e^3*
       (1 - e^2)^(5/6)*Pi*Sqrt[(3*e*(-1 + e^2) - Sqrt[1 - e^2]*(-3 + 2*e^2)*
           ArcSin[e])/e^3]*k0[24]*phiO[24])/
      (35*(-1 + e^2)^2*(-1 + Sqrt[-1 + e^(-2)]*ArcCot[Sqrt[-1 + e^(-2)]]) + 
       (5*e^2 - 2*e^4)*Hypergeometric2F1[2, 5/2, 9/2, e^2/(-1 + e^2)]), 
     (60*Sqrt[2]*Sqrt[-1 + e^(-2)]*e^3*(1 - e^2)^(11/6)*Pi*
       Sqrt[(3*e*(-1 + e^2) - Sqrt[1 - e^2]*(-3 + 2*e^2)*ArcSin[e])/e^3]*
       k0[25]*phiO[25])/(35*(-1 + e^2)^3*(-1 + Sqrt[-1 + e^(-2)]*
          ArcCot[Sqrt[-1 + e^(-2)]]) + e^2*(-5 + 4*e^2)*
        Hypergeometric2F1[5/2, 3, 9/2, e^2/(-1 + e^2)]), 
     (60*Sqrt[2]*Sqrt[-1 + e^(-2)]*e^3*(1 - e^2)^(11/6)*Pi*
       Sqrt[(3*e*(-1 + e^2) - Sqrt[1 - e^2]*(-3 + 2*e^2)*ArcSin[e])/e^3]*
       k0[26]*phiO[26])/(35*(-1 + e^2)^3*(-1 + Sqrt[-1 + e^(-2)]*
          ArcCot[Sqrt[-1 + e^(-2)]]) + e^2*(-5 + 4*e^2)*
        Hypergeometric2F1[5/2, 3, 9/2, e^2/(-1 + e^2)]), 
     (60*Sqrt[2]*Sqrt[-1 + e^(-2)]*e^3*(1 - e^2)^(11/6)*Pi*
       Sqrt[(3*e*(-1 + e^2) - Sqrt[1 - e^2]*(-3 + 2*e^2)*ArcSin[e])/e^3]*
       k0[27]*phiO[27])/(35*(-1 + e^2)^3*(-1 + Sqrt[-1 + e^(-2)]*
          ArcCot[Sqrt[-1 + e^(-2)]]) + e^2*(-5 + 4*e^2)*
        Hypergeometric2F1[5/2, 3, 9/2, e^2/(-1 + e^2)]), 
     (60*Sqrt[2]*Sqrt[-1 + e^(-2)]*e^3*(1 - e^2)^(11/6)*Pi*
       Sqrt[(3*e*(-1 + e^2) - Sqrt[1 - e^2]*(-3 + 2*e^2)*ArcSin[e])/e^3]*
       k0[28]*phiO[28])/(35*(-1 + e^2)^3*(-1 + Sqrt[-1 + e^(-2)]*
          ArcCot[Sqrt[-1 + e^(-2)]]) + e^2*(-5 + 4*e^2)*
        Hypergeometric2F1[5/2, 3, 9/2, e^2/(-1 + e^2)]), 
     (120*Sqrt[2]*Sqrt[-1 + e^(-2)]*e^3*(1 - e^2)^(11/6)*Pi*
       Sqrt[(3*e*(-1 + e^2) - Sqrt[1 - e^2]*(-3 + 2*e^2)*ArcSin[e])/e^3]*
       k0[29]*phiO[29])/(7*(-1 + e^2)^3*(-1 + Sqrt[-1 + e^(-2)]*
          ArcCot[Sqrt[-1 + e^(-2)]]) - e^2*Hypergeometric2F1[3, 7/2, 9/2, 
         e^2/(-1 + e^2)]), (120*Sqrt[2]*Sqrt[-1 + e^(-2)]*e^3*
       (1 - e^2)^(11/6)*Pi*Sqrt[(3*e*(-1 + e^2) - Sqrt[1 - e^2]*(-3 + 2*e^2)*
           ArcSin[e])/e^3]*k0[30]*phiO[30])/
      (7*(-1 + e^2)^3*(-1 + Sqrt[-1 + e^(-2)]*ArcCot[Sqrt[-1 + e^(-2)]]) - 
       e^2*Hypergeometric2F1[3, 7/2, 9/2, e^2/(-1 + e^2)]), 
     (120*Sqrt[2]*Sqrt[-1 + e^(-2)]*e^3*(1 - e^2)^(11/6)*Pi*
       Sqrt[(3*e*(-1 + e^2) - Sqrt[1 - e^2]*(-3 + 2*e^2)*ArcSin[e])/e^3]*
       k0[31]*phiO[31])/(7*(-1 + e^2)^3*(-1 + Sqrt[-1 + e^(-2)]*
          ArcCot[Sqrt[-1 + e^(-2)]]) - e^2*Hypergeometric2F1[3, 7/2, 9/2, 
         e^2/(-1 + e^2)]), 
     (34560*e^7*Pi*Sqrt[(6*e*(-1 + e^2) - 2*Sqrt[1 - e^2]*(-3 + 2*e^2)*
           ArcSin[e])/e^3]*k0[32]*phiO[32])/(7*(1 - e^2)^(1/6)*
       (Sqrt[-1 + e^(-2)]*e^2*(15 + 10*e^2 + 56*e^4) + 
        3*(-5 - 16*e^4 + 16*e^6)*ArcCot[Sqrt[-1 + e^(-2)]])), 
     (34560*e^7*Pi*Sqrt[(6*e*(-1 + e^2) - 2*Sqrt[1 - e^2]*(-3 + 2*e^2)*
           ArcSin[e])/e^3]*k0[33]*phiO[33])/(7*(1 - e^2)^(1/6)*
       (Sqrt[-1 + e^(-2)]*e^2*(15 + 10*e^2 + 56*e^4) + 
        3*(-5 - 16*e^4 + 16*e^6)*ArcCot[Sqrt[-1 + e^(-2)]])), 
     (e^9*Pi*Sqrt[(6*e*(-1 + e^2) - 2*Sqrt[1 - e^2]*(-3 + 2*e^2)*ArcSin[e])/
         e^3]*k0[34]*phiO[34])/(945*(1 - e^2)^(1/6)*
       (Sqrt[-1 + e^(-2)]*e^2*(105 + 70*e^2 + 56*e^4 + 432*e^6) + 
        3*(-35 - 128*e^6 + 128*e^8)*ArcCot[Sqrt[-1 + e^(-2)]])), 
     (e^9*Pi*Sqrt[(6*e*(-1 + e^2) - 2*Sqrt[1 - e^2]*(-3 + 2*e^2)*ArcSin[e])/
         e^3]*k0[35]*phiO[35])/(945*(1 - e^2)^(1/6)*
       (Sqrt[-1 + e^(-2)]*e^2*(105 + 70*e^2 + 56*e^4 + 432*e^6) + 
        3*(-35 - 128*e^6 + 128*e^8)*ArcCot[Sqrt[-1 + e^(-2)]])), 
     (Sqrt[-1 + e^(-2)]*e^3*Pi*Sqrt[(3*e*(-1 + e^2) - Sqrt[1 - e^2]*
           (-3 + 2*e^2)*ArcSin[e])/e^3]*k0[36]*phiO[36])/
      (2520*Sqrt[2]*(1 - e^2)^(1/6)*
       (9*(-1 + e^2)*(-1 + Sqrt[-1 + e^(-2)]*ArcCot[Sqrt[-1 + e^(-2)]]) - 
        e^2*Hypergeometric2F1[1, 3/2, 11/2, e^2/(-1 + e^2)])), 
     (Sqrt[-1 + e^(-2)]*e^3*Pi*Sqrt[(3*e*(-1 + e^2) - Sqrt[1 - e^2]*
           (-3 + 2*e^2)*ArcSin[e])/e^3]*k0[37]*phiO[37])/
      (2520*Sqrt[2]*(1 - e^2)^(1/6)*
       (9*(-1 + e^2)*(-1 + Sqrt[-1 + e^(-2)]*ArcCot[Sqrt[-1 + e^(-2)]]) - 
        e^2*Hypergeometric2F1[1, 3/2, 11/2, e^2/(-1 + e^2)])), 
     (Sqrt[-1 + e^(-2)]*e^3*Pi*Sqrt[(3*e*(-1 + e^2) - Sqrt[1 - e^2]*
           (-3 + 2*e^2)*ArcSin[e])/e^3]*k0[38]*phiO[38])/
      (2520*Sqrt[2]*(1 - e^2)^(1/6)*
       (9*(-1 + e^2)*(-1 + Sqrt[-1 + e^(-2)]*ArcCot[Sqrt[-1 + e^(-2)]]) - 
        e^2*Hypergeometric2F1[1, 3/2, 11/2, e^2/(-1 + e^2)])), 
     (-7*Sqrt[-1 + e^(-2)]*e^3*(1 - e^2)^(5/6)*Pi*
       Sqrt[(3*e*(-1 + e^2) - Sqrt[1 - e^2]*(-3 + 2*e^2)*ArcSin[e])/e^3]*
       k0[39]*phiO[39])/(180*Sqrt[2]*(63*(-1 + e^2)^2*
         (-1 + Sqrt[-1 + e^(-2)]*ArcCot[Sqrt[-1 + e^(-2)]]) + 
        (7*e^2 - 6*e^4)*Hypergeometric2F1[3/2, 2, 11/2, e^2/(-1 + e^2)])), 
     (-7*Sqrt[-1 + e^(-2)]*e^3*(1 - e^2)^(5/6)*Pi*
       Sqrt[(3*e*(-1 + e^2) - Sqrt[1 - e^2]*(-3 + 2*e^2)*ArcSin[e])/e^3]*
       k0[40]*phiO[40])/(180*Sqrt[2]*(63*(-1 + e^2)^2*
         (-1 + Sqrt[-1 + e^(-2)]*ArcCot[Sqrt[-1 + e^(-2)]]) + 
        (7*e^2 - 6*e^4)*Hypergeometric2F1[3/2, 2, 11/2, e^2/(-1 + e^2)])), 
     (-7*Sqrt[-1 + e^(-2)]*e^3*(1 - e^2)^(5/6)*Pi*
       Sqrt[(3*e*(-1 + e^2) - Sqrt[1 - e^2]*(-3 + 2*e^2)*ArcSin[e])/e^3]*
       k0[41]*phiO[41])/(180*Sqrt[2]*(63*(-1 + e^2)^2*
         (-1 + Sqrt[-1 + e^(-2)]*ArcCot[Sqrt[-1 + e^(-2)]]) + 
        (7*e^2 - 6*e^4)*Hypergeometric2F1[3/2, 2, 11/2, e^2/(-1 + e^2)])), 
     (-7*Sqrt[-1 + e^(-2)]*e^3*(1 - e^2)^(5/6)*Pi*
       Sqrt[(3*e*(-1 + e^2) - Sqrt[1 - e^2]*(-3 + 2*e^2)*ArcSin[e])/e^3]*
       k0[42]*phiO[42])/(180*Sqrt[2]*(63*(-1 + e^2)^2*
         (-1 + Sqrt[-1 + e^(-2)]*ArcCot[Sqrt[-1 + e^(-2)]]) + 
        (7*e^2 - 6*e^4)*Hypergeometric2F1[3/2, 2, 11/2, e^2/(-1 + e^2)])), 
     (-7*Sqrt[-1 + e^(-2)]*e^3*(1 - e^2)^(5/6)*Pi*
       Sqrt[(3*e*(-1 + e^2) - Sqrt[1 - e^2]*(-3 + 2*e^2)*ArcSin[e])/e^3]*
       k0[43]*phiO[43])/(10*Sqrt[2]*(63*(-1 + e^2)^2*
         (-1 + Sqrt[-1 + e^(-2)]*ArcCot[Sqrt[-1 + e^(-2)]]) + 
        (7*e^2 - 4*e^4)*Hypergeometric2F1[2, 5/2, 11/2, e^2/(-1 + e^2)])), 
     (-7*Sqrt[-1 + e^(-2)]*e^3*(1 - e^2)^(5/6)*Pi*
       Sqrt[(3*e*(-1 + e^2) - Sqrt[1 - e^2]*(-3 + 2*e^2)*ArcSin[e])/e^3]*
       k0[44]*phiO[44])/(10*Sqrt[2]*(63*(-1 + e^2)^2*
         (-1 + Sqrt[-1 + e^(-2)]*ArcCot[Sqrt[-1 + e^(-2)]]) + 
        (7*e^2 - 4*e^4)*Hypergeometric2F1[2, 5/2, 11/2, e^2/(-1 + e^2)])), 
     (-7*Sqrt[-1 + e^(-2)]*e^3*(1 - e^2)^(5/6)*Pi*
       Sqrt[(3*e*(-1 + e^2) - Sqrt[1 - e^2]*(-3 + 2*e^2)*ArcSin[e])/e^3]*
       k0[45]*phiO[45])/(10*Sqrt[2]*(63*(-1 + e^2)^2*
         (-1 + Sqrt[-1 + e^(-2)]*ArcCot[Sqrt[-1 + e^(-2)]]) + 
        (7*e^2 - 4*e^4)*Hypergeometric2F1[2, 5/2, 11/2, e^2/(-1 + e^2)])), 
     (-7*Sqrt[-1 + e^(-2)]*e^3*(1 - e^2)^(5/6)*Pi*
       Sqrt[(3*e*(-1 + e^2) - Sqrt[1 - e^2]*(-3 + 2*e^2)*ArcSin[e])/e^3]*
       k0[46]*phiO[46])/(10*Sqrt[2]*(63*(-1 + e^2)^2*
         (-1 + Sqrt[-1 + e^(-2)]*ArcCot[Sqrt[-1 + e^(-2)]]) + 
        (7*e^2 - 4*e^4)*Hypergeometric2F1[2, 5/2, 11/2, e^2/(-1 + e^2)])), 
     (-7*Sqrt[-1 + e^(-2)]*e^3*(1 - e^2)^(5/6)*Pi*
       Sqrt[(3*e*(-1 + e^2) - Sqrt[1 - e^2]*(-3 + 2*e^2)*ArcSin[e])/e^3]*
       k0[47]*phiO[47])/(10*Sqrt[2]*(63*(-1 + e^2)^2*
         (-1 + Sqrt[-1 + e^(-2)]*ArcCot[Sqrt[-1 + e^(-2)]]) + 
        (7*e^2 - 4*e^4)*Hypergeometric2F1[2, 5/2, 11/2, e^2/(-1 + e^2)])), 
     (35*Sqrt[2]*Sqrt[-1 + e^(-2)]*e^3*(1 - e^2)^(11/6)*Pi*
       Sqrt[(3*e*(-1 + e^2) - Sqrt[1 - e^2]*(-3 + 2*e^2)*ArcSin[e])/e^3]*
       k0[48]*phiO[48])/(315*(-1 + e^2)^3*(-1 + Sqrt[-1 + e^(-2)]*
          ArcCot[Sqrt[-1 + e^(-2)]]) + (-35*e^2 + 40*e^4 - 8*e^6)*
        Hypergeometric2F1[5/2, 3, 11/2, e^2/(-1 + e^2)]), 
     (35*Sqrt[2]*Sqrt[-1 + e^(-2)]*e^3*(1 - e^2)^(11/6)*Pi*
       Sqrt[(3*e*(-1 + e^2) - Sqrt[1 - e^2]*(-3 + 2*e^2)*ArcSin[e])/e^3]*
       k0[49]*phiO[49])/(315*(-1 + e^2)^3*(-1 + Sqrt[-1 + e^(-2)]*
          ArcCot[Sqrt[-1 + e^(-2)]]) + (-35*e^2 + 40*e^4 - 8*e^6)*
        Hypergeometric2F1[5/2, 3, 11/2, e^2/(-1 + e^2)]), 
     (35*Sqrt[2]*Sqrt[-1 + e^(-2)]*e^3*(1 - e^2)^(11/6)*Pi*
       Sqrt[(3*e*(-1 + e^2) - Sqrt[1 - e^2]*(-3 + 2*e^2)*ArcSin[e])/e^3]*
       k0[50]*phiO[50])/(315*(-1 + e^2)^3*(-1 + Sqrt[-1 + e^(-2)]*
          ArcCot[Sqrt[-1 + e^(-2)]]) + (-35*e^2 + 40*e^4 - 8*e^6)*
        Hypergeometric2F1[5/2, 3, 11/2, e^2/(-1 + e^2)]), 
     (35*Sqrt[2]*Sqrt[-1 + e^(-2)]*e^3*(1 - e^2)^(11/6)*Pi*
       Sqrt[(3*e*(-1 + e^2) - Sqrt[1 - e^2]*(-3 + 2*e^2)*ArcSin[e])/e^3]*
       k0[51]*phiO[51])/(315*(-1 + e^2)^3*(-1 + Sqrt[-1 + e^(-2)]*
          ArcCot[Sqrt[-1 + e^(-2)]]) + (-35*e^2 + 40*e^4 - 8*e^6)*
        Hypergeometric2F1[5/2, 3, 11/2, e^2/(-1 + e^2)]), 
     (35*Sqrt[2]*Sqrt[-1 + e^(-2)]*e^3*(1 - e^2)^(11/6)*Pi*
       Sqrt[(3*e*(-1 + e^2) - Sqrt[1 - e^2]*(-3 + 2*e^2)*ArcSin[e])/e^3]*
       k0[52]*phiO[52])/(315*(-1 + e^2)^3*(-1 + Sqrt[-1 + e^(-2)]*
          ArcCot[Sqrt[-1 + e^(-2)]]) + (-35*e^2 + 40*e^4 - 8*e^6)*
        Hypergeometric2F1[5/2, 3, 11/2, e^2/(-1 + e^2)]), 
     (140*Sqrt[2]*Sqrt[-1 + e^(-2)]*e^3*(1 - e^2)^(11/6)*Pi*
       Sqrt[(3*e*(-1 + e^2) - Sqrt[1 - e^2]*(-3 + 2*e^2)*ArcSin[e])/e^3]*
       k0[53]*phiO[53])/(63*(-1 + e^2)^3*(-1 + Sqrt[-1 + e^(-2)]*
          ArcCot[Sqrt[-1 + e^(-2)]]) + e^2*(-7 + 4*e^2)*
        Hypergeometric2F1[3, 7/2, 11/2, e^2/(-1 + e^2)]), 
     (140*Sqrt[2]*Sqrt[-1 + e^(-2)]*e^3*(1 - e^2)^(11/6)*Pi*
       Sqrt[(3*e*(-1 + e^2) - Sqrt[1 - e^2]*(-3 + 2*e^2)*ArcSin[e])/e^3]*
       k0[54]*phiO[54])/(63*(-1 + e^2)^3*(-1 + Sqrt[-1 + e^(-2)]*
          ArcCot[Sqrt[-1 + e^(-2)]]) + e^2*(-7 + 4*e^2)*
        Hypergeometric2F1[3, 7/2, 11/2, e^2/(-1 + e^2)]), 
     (140*Sqrt[2]*Sqrt[-1 + e^(-2)]*e^3*(1 - e^2)^(11/6)*Pi*
       Sqrt[(3*e*(-1 + e^2) - Sqrt[1 - e^2]*(-3 + 2*e^2)*ArcSin[e])/e^3]*
       k0[55]*phiO[55])/(63*(-1 + e^2)^3*(-1 + Sqrt[-1 + e^(-2)]*
          ArcCot[Sqrt[-1 + e^(-2)]]) + e^2*(-7 + 4*e^2)*
        Hypergeometric2F1[3, 7/2, 11/2, e^2/(-1 + e^2)]), 
     (140*Sqrt[2]*Sqrt[-1 + e^(-2)]*e^3*(1 - e^2)^(11/6)*Pi*
       Sqrt[(3*e*(-1 + e^2) - Sqrt[1 - e^2]*(-3 + 2*e^2)*ArcSin[e])/e^3]*
       k0[56]*phiO[56])/(63*(-1 + e^2)^3*(-1 + Sqrt[-1 + e^(-2)]*
          ArcCot[Sqrt[-1 + e^(-2)]]) + e^2*(-7 + 4*e^2)*
        Hypergeometric2F1[3, 7/2, 11/2, e^2/(-1 + e^2)]), 
     (140*Sqrt[2]*Sqrt[-1 + e^(-2)]*e^3*(1 - e^2)^(11/6)*Pi*
       Sqrt[(3*e*(-1 + e^2) - Sqrt[1 - e^2]*(-3 + 2*e^2)*ArcSin[e])/e^3]*
       k0[57]*phiO[57])/(63*(-1 + e^2)^3*(-1 + Sqrt[-1 + e^(-2)]*
          ArcCot[Sqrt[-1 + e^(-2)]]) + e^2*(-7 + 4*e^2)*
        Hypergeometric2F1[3, 7/2, 11/2, e^2/(-1 + e^2)]), 
     (-2520*Sqrt[2]*Sqrt[-1 + e^(-2)]*e^3*(1 - e^2)^(17/6)*Pi*
       Sqrt[(3*e*(-1 + e^2) - Sqrt[1 - e^2]*(-3 + 2*e^2)*ArcSin[e])/e^3]*
       k0[58]*phiO[58])/(63*(-1 + e^2)^4*(-1 + Sqrt[-1 + e^(-2)]*
          ArcCot[Sqrt[-1 + e^(-2)]]) + (7*e^2 - 6*e^4)*Hypergeometric2F1[7/2, 
         4, 11/2, e^2/(-1 + e^2)]), (-2520*Sqrt[2]*Sqrt[-1 + e^(-2)]*e^3*
       (1 - e^2)^(17/6)*Pi*Sqrt[(3*e*(-1 + e^2) - Sqrt[1 - e^2]*(-3 + 2*e^2)*
           ArcSin[e])/e^3]*k0[59]*phiO[59])/
      (63*(-1 + e^2)^4*(-1 + Sqrt[-1 + e^(-2)]*ArcCot[Sqrt[-1 + e^(-2)]]) + 
       (7*e^2 - 6*e^4)*Hypergeometric2F1[7/2, 4, 11/2, e^2/(-1 + e^2)]), 
     (-2520*Sqrt[2]*Sqrt[-1 + e^(-2)]*e^3*(1 - e^2)^(17/6)*Pi*
       Sqrt[(3*e*(-1 + e^2) - Sqrt[1 - e^2]*(-3 + 2*e^2)*ArcSin[e])/e^3]*
       k0[60]*phiO[60])/(63*(-1 + e^2)^4*(-1 + Sqrt[-1 + e^(-2)]*
          ArcCot[Sqrt[-1 + e^(-2)]]) + (7*e^2 - 6*e^4)*Hypergeometric2F1[7/2, 
         4, 11/2, e^2/(-1 + e^2)]), (-2520*Sqrt[2]*Sqrt[-1 + e^(-2)]*e^3*
       (1 - e^2)^(17/6)*Pi*Sqrt[(3*e*(-1 + e^2) - Sqrt[1 - e^2]*(-3 + 2*e^2)*
           ArcSin[e])/e^3]*k0[61]*phiO[61])/
      (63*(-1 + e^2)^4*(-1 + Sqrt[-1 + e^(-2)]*ArcCot[Sqrt[-1 + e^(-2)]]) + 
       (7*e^2 - 6*e^4)*Hypergeometric2F1[7/2, 4, 11/2, e^2/(-1 + e^2)]), 
     (-5040*Sqrt[2]*Sqrt[-1 + e^(-2)]*e^3*(1 - e^2)^(17/6)*Pi*
       Sqrt[(3*e*(-1 + e^2) - Sqrt[1 - e^2]*(-3 + 2*e^2)*ArcSin[e])/e^3]*
       k0[62]*phiO[62])/(9*(-1 + e^2)^4*(-1 + Sqrt[-1 + e^(-2)]*
          ArcCot[Sqrt[-1 + e^(-2)]]) + e^2*Hypergeometric2F1[4, 9/2, 11/2, 
         e^2/(-1 + e^2)]), (-5040*Sqrt[2]*Sqrt[-1 + e^(-2)]*e^3*
       (1 - e^2)^(17/6)*Pi*Sqrt[(3*e*(-1 + e^2) - Sqrt[1 - e^2]*(-3 + 2*e^2)*
           ArcSin[e])/e^3]*k0[63]*phiO[63])/
      (9*(-1 + e^2)^4*(-1 + Sqrt[-1 + e^(-2)]*ArcCot[Sqrt[-1 + e^(-2)]]) + 
       e^2*Hypergeometric2F1[4, 9/2, 11/2, e^2/(-1 + e^2)]), 
     (-5040*Sqrt[2]*Sqrt[-1 + e^(-2)]*e^3*(1 - e^2)^(17/6)*Pi*
       Sqrt[(3*e*(-1 + e^2) - Sqrt[1 - e^2]*(-3 + 2*e^2)*ArcSin[e])/e^3]*
       k0[64]*phiO[64])/(9*(-1 + e^2)^4*(-1 + Sqrt[-1 + e^(-2)]*
          ArcCot[Sqrt[-1 + e^(-2)]]) + e^2*Hypergeometric2F1[4, 9/2, 11/2, 
         e^2/(-1 + e^2)]), (1720320*e^9*Pi*
       Sqrt[(6*e*(-1 + e^2) - 2*Sqrt[1 - e^2]*(-3 + 2*e^2)*ArcSin[e])/e^3]*
       k0[65]*phiO[65])/((1 - e^2)^(1/6)*(Sqrt[-1 + e^(-2)]*e^2*
         (105 + 70*e^2 + 56*e^4 + 432*e^6) + 3*(-35 - 128*e^6 + 128*e^8)*
         ArcCot[Sqrt[-1 + e^(-2)]])), 
     (1720320*e^9*Pi*Sqrt[(6*e*(-1 + e^2) - 2*Sqrt[1 - e^2]*(-3 + 2*e^2)*
           ArcSin[e])/e^3]*k0[66]*phiO[66])/((1 - e^2)^(1/6)*
       (Sqrt[-1 + e^(-2)]*e^2*(105 + 70*e^2 + 56*e^4 + 432*e^6) + 
        3*(-35 - 128*e^6 + 128*e^8)*ArcCot[Sqrt[-1 + e^(-2)]]))}
 
GForcingVectorBylm = 
    {{(e^5*k*phiO*Pi*Sqrt[(6*e*(-1 + e^2) - 2*Sqrt[1 - e^2]*(-3 + 2*e^2)*
            ArcSin[e])/e^3])/(15*(1 - e^2)^(1/6)*
        (Sqrt[-1 + e^(-2)]*e^2*(3 + 10*e^2) + (-3 - 8*e^2 + 8*e^4)*
          ArcCot[Sqrt[-1 + e^(-2)]])), (Sqrt[-1 + e^(-2)]*e^3*k*phiO*Pi*
        Sqrt[(3*e*(-1 + e^2) - Sqrt[1 - e^2]*(-3 + 2*e^2)*ArcSin[e])/e^3])/
       (3*Sqrt[2]*(1 - e^2)^(1/6)*(5*(-1 + e^2)*(-1 + Sqrt[-1 + e^(-2)]*
            ArcCot[Sqrt[-1 + e^(-2)]]) - e^2*Hypergeometric2F1[1, 3/2, 7/2, 
           e^2/(-1 + e^2)])), (-3*Sqrt[2]*Sqrt[-1 + e^(-2)]*e^3*
        (1 - e^2)^(5/6)*k*phiO*Pi*Sqrt[(3*e*(-1 + e^2) - Sqrt[1 - e^2]*
            (-3 + 2*e^2)*ArcSin[e])/e^3])/
       (15*(-1 + e^2)^2*(-1 + Sqrt[-1 + e^(-2)]*ArcCot[Sqrt[-1 + e^(-2)]]) + 
        (3*e^2 - 2*e^4)*Hypergeometric2F1[3/2, 2, 7/2, e^2/(-1 + e^2)]), 
      (-6*Sqrt[2]*Sqrt[-1 + e^(-2)]*e^3*(1 - e^2)^(5/6)*k*phiO*Pi*
        Sqrt[(3*e*(-1 + e^2) - Sqrt[1 - e^2]*(-3 + 2*e^2)*ArcSin[e])/e^3])/
       (5*(-1 + e^2)^2*(-1 + Sqrt[-1 + e^(-2)]*ArcCot[Sqrt[-1 + e^(-2)]]) + 
        e^2*Hypergeometric2F1[2, 5/2, 7/2, e^2/(-1 + e^2)]), 
      (192*e^5*k*phiO*Pi*Sqrt[(6*e*(-1 + e^2) - 2*Sqrt[1 - e^2]*(-3 + 2*e^2)*
            ArcSin[e])/e^3])/(5*(1 - e^2)^(1/6)*
        (Sqrt[-1 + e^(-2)]*e^2*(3 + 10*e^2) + (-3 - 8*e^2 + 8*e^4)*
          ArcCot[Sqrt[-1 + e^(-2)]]))}, 
     {(e^7*k*phiO*Pi*Sqrt[(6*e*(-1 + e^2) - 2*Sqrt[1 - e^2]*(-3 + 2*e^2)*
            ArcSin[e])/e^3])/(105*(1 - e^2)^(1/6)*
        (Sqrt[-1 + e^(-2)]*e^2*(15 + 10*e^2 + 56*e^4) + 
         3*(-5 - 16*e^4 + 16*e^6)*ArcCot[Sqrt[-1 + e^(-2)]])), 
      (Sqrt[-1 + e^(-2)]*e^3*k*phiO*Pi*
        Sqrt[(3*e*(-1 + e^2) - Sqrt[1 - e^2]*(-3 + 2*e^2)*ArcSin[e])/e^3])/
       (60*Sqrt[2]*(1 - e^2)^(1/6)*(7*(-1 + e^2)*(-1 + Sqrt[-1 + e^(-2)]*
            ArcCot[Sqrt[-1 + e^(-2)]]) - e^2*Hypergeometric2F1[1, 3/2, 9/2, 
           e^2/(-1 + e^2)])), (-5*Sqrt[-1 + e^(-2)]*e^3*(1 - e^2)^(5/6)*k*
        phiO*Pi*Sqrt[(3*e*(-1 + e^2) - Sqrt[1 - e^2]*(-3 + 2*e^2)*ArcSin[e])/
          e^3])/(6*Sqrt[2]*(35*(-1 + e^2)^2*(-1 + Sqrt[-1 + e^(-2)]*
            ArcCot[Sqrt[-1 + e^(-2)]]) + (5*e^2 - 4*e^4)*Hypergeometric2F1[
           3/2, 2, 9/2, e^2/(-1 + e^2)])), (-5*Sqrt[2]*Sqrt[-1 + e^(-2)]*e^3*
        (1 - e^2)^(5/6)*k*phiO*Pi*Sqrt[(3*e*(-1 + e^2) - Sqrt[1 - e^2]*
            (-3 + 2*e^2)*ArcSin[e])/e^3])/
       (35*(-1 + e^2)^2*(-1 + Sqrt[-1 + e^(-2)]*ArcCot[Sqrt[-1 + e^(-2)]]) + 
        (5*e^2 - 2*e^4)*Hypergeometric2F1[2, 5/2, 9/2, e^2/(-1 + e^2)]), 
      (60*Sqrt[2]*Sqrt[-1 + e^(-2)]*e^3*(1 - e^2)^(11/6)*k*phiO*Pi*
        Sqrt[(3*e*(-1 + e^2) - Sqrt[1 - e^2]*(-3 + 2*e^2)*ArcSin[e])/e^3])/
       (35*(-1 + e^2)^3*(-1 + Sqrt[-1 + e^(-2)]*ArcCot[Sqrt[-1 + e^(-2)]]) + 
        e^2*(-5 + 4*e^2)*Hypergeometric2F1[5/2, 3, 9/2, e^2/(-1 + e^2)]), 
      (120*Sqrt[2]*Sqrt[-1 + e^(-2)]*e^3*(1 - e^2)^(11/6)*k*phiO*Pi*
        Sqrt[(3*e*(-1 + e^2) - Sqrt[1 - e^2]*(-3 + 2*e^2)*ArcSin[e])/e^3])/
       (7*(-1 + e^2)^3*(-1 + Sqrt[-1 + e^(-2)]*ArcCot[Sqrt[-1 + e^(-2)]]) - 
        e^2*Hypergeometric2F1[3, 7/2, 9/2, e^2/(-1 + e^2)]), 
      (34560*e^7*k*phiO*Pi*Sqrt[(6*e*(-1 + e^2) - 2*Sqrt[1 - e^2]*
            (-3 + 2*e^2)*ArcSin[e])/e^3])/(7*(1 - e^2)^(1/6)*
        (Sqrt[-1 + e^(-2)]*e^2*(15 + 10*e^2 + 56*e^4) + 
         3*(-5 - 16*e^4 + 16*e^6)*ArcCot[Sqrt[-1 + e^(-2)]]))}, 
     {(e^9*k*phiO*Pi*Sqrt[(6*e*(-1 + e^2) - 2*Sqrt[1 - e^2]*(-3 + 2*e^2)*
            ArcSin[e])/e^3])/(945*(1 - e^2)^(1/6)*
        (Sqrt[-1 + e^(-2)]*e^2*(105 + 70*e^2 + 56*e^4 + 432*e^6) + 
         3*(-35 - 128*e^6 + 128*e^8)*ArcCot[Sqrt[-1 + e^(-2)]])), 
      (Sqrt[-1 + e^(-2)]*e^3*k*phiO*Pi*
        Sqrt[(3*e*(-1 + e^2) - Sqrt[1 - e^2]*(-3 + 2*e^2)*ArcSin[e])/e^3])/
       (2520*Sqrt[2]*(1 - e^2)^(1/6)*
        (9*(-1 + e^2)*(-1 + Sqrt[-1 + e^(-2)]*ArcCot[Sqrt[-1 + e^(-2)]]) - 
         e^2*Hypergeometric2F1[1, 3/2, 11/2, e^2/(-1 + e^2)])), 
      (-7*Sqrt[-1 + e^(-2)]*e^3*(1 - e^2)^(5/6)*k*phiO*Pi*
        Sqrt[(3*e*(-1 + e^2) - Sqrt[1 - e^2]*(-3 + 2*e^2)*ArcSin[e])/e^3])/
       (180*Sqrt[2]*(63*(-1 + e^2)^2*(-1 + Sqrt[-1 + e^(-2)]*
            ArcCot[Sqrt[-1 + e^(-2)]]) + (7*e^2 - 6*e^4)*Hypergeometric2F1[
           3/2, 2, 11/2, e^2/(-1 + e^2)])), 
      (-7*Sqrt[-1 + e^(-2)]*e^3*(1 - e^2)^(5/6)*k*phiO*Pi*
        Sqrt[(3*e*(-1 + e^2) - Sqrt[1 - e^2]*(-3 + 2*e^2)*ArcSin[e])/e^3])/
       (10*Sqrt[2]*(63*(-1 + e^2)^2*(-1 + Sqrt[-1 + e^(-2)]*
            ArcCot[Sqrt[-1 + e^(-2)]]) + (7*e^2 - 4*e^4)*Hypergeometric2F1[2, 
           5/2, 11/2, e^2/(-1 + e^2)])), (35*Sqrt[2]*Sqrt[-1 + e^(-2)]*e^3*
        (1 - e^2)^(11/6)*k*phiO*Pi*Sqrt[(3*e*(-1 + e^2) - 
           Sqrt[1 - e^2]*(-3 + 2*e^2)*ArcSin[e])/e^3])/
       (315*(-1 + e^2)^3*(-1 + Sqrt[-1 + e^(-2)]*ArcCot[Sqrt[-1 + e^(-2)]]) + 
        (-35*e^2 + 40*e^4 - 8*e^6)*Hypergeometric2F1[5/2, 3, 11/2, 
          e^2/(-1 + e^2)]), (140*Sqrt[2]*Sqrt[-1 + e^(-2)]*e^3*
        (1 - e^2)^(11/6)*k*phiO*Pi*Sqrt[(3*e*(-1 + e^2) - 
           Sqrt[1 - e^2]*(-3 + 2*e^2)*ArcSin[e])/e^3])/
       (63*(-1 + e^2)^3*(-1 + Sqrt[-1 + e^(-2)]*ArcCot[Sqrt[-1 + e^(-2)]]) + 
        e^2*(-7 + 4*e^2)*Hypergeometric2F1[3, 7/2, 11/2, e^2/(-1 + e^2)]), 
      (-2520*Sqrt[2]*Sqrt[-1 + e^(-2)]*e^3*(1 - e^2)^(17/6)*k*phiO*Pi*
        Sqrt[(3*e*(-1 + e^2) - Sqrt[1 - e^2]*(-3 + 2*e^2)*ArcSin[e])/e^3])/
       (63*(-1 + e^2)^4*(-1 + Sqrt[-1 + e^(-2)]*ArcCot[Sqrt[-1 + e^(-2)]]) + 
        (7*e^2 - 6*e^4)*Hypergeometric2F1[7/2, 4, 11/2, e^2/(-1 + e^2)]), 
      (-5040*Sqrt[2]*Sqrt[-1 + e^(-2)]*e^3*(1 - e^2)^(17/6)*k*phiO*Pi*
        Sqrt[(3*e*(-1 + e^2) - Sqrt[1 - e^2]*(-3 + 2*e^2)*ArcSin[e])/e^3])/
       (9*(-1 + e^2)^4*(-1 + Sqrt[-1 + e^(-2)]*ArcCot[Sqrt[-1 + e^(-2)]]) + 
        e^2*Hypergeometric2F1[4, 9/2, 11/2, e^2/(-1 + e^2)]), 
      (1720320*e^9*k*phiO*Pi*Sqrt[(6*e*(-1 + e^2) - 2*Sqrt[1 - e^2]*
            (-3 + 2*e^2)*ArcSin[e])/e^3])/((1 - e^2)^(1/6)*
        (Sqrt[-1 + e^(-2)]*e^2*(105 + 70*e^2 + 56*e^4 + 432*e^6) + 
         3*(-35 - 128*e^6 + 128*e^8)*ArcCot[Sqrt[-1 + e^(-2)]]))}}
